Hydrological Data from the Environment Agency • ea
…
We can see that there are several timeseries available for this station, each referenced with a unique measurement ID provided in the notation column. We retrieve the ID for daily mean flow:

measure <- tslist |>
  filter(period == 86400 & valueType == "mean") |> 
  pull(notation)
measure
#> [1] "b0713e87-cab3-46e4-bfb3-f0bbb91cedf6-flow-m-86400-m3s-qualified"

We can use the measurement ID to retrieve the timeseries data:

min_date <- Sys.Date() %m-% months(3)
ts <- ea_timeseries_values(measure, min_date = min_date)
ts
#> # A tibble: 84 × 9
#>    measure       date       dateTime            value completeness quality valid
#>    <chr>         <date>     <dttm>              <dbl> <chr>        <chr>   <chr>
#>  1 b0713e87-cab… 2024-04-18 2024-04-18 00:00:00  45.8 Complete     Good    <NA> 
#>  2 b0713e87-cab… 2024-04-22 2024-04-22 00:00:00  39.0 Complete     Good    <NA> 
#>  3 b0713e87-cab… 2024-04-25 2024-04-25 00:00:00  36.1 Complete     Good    <NA> 
#>  4 b0713e87-cab… 2024-04-27 2024-04-27 00:00:00  35.4 Complete     Good    <NA> 
#>  5 b0713e87-cab… 2024-04-30 2024-04-30 00:00:00  57.8 Complete     Good    <NA> 
#>  6 b0713e87-cab… 2024-04-28 2024-04-28 00:00:00  53.1 Complete     Good    <NA> 
#>  7 b0713e87-cab… 2024-04-29 2024-04-29 00:00:00  64.8 Complete     Good    <NA> 
#>  8 b0713e87-cab… 2024-05-26 2024-05-26 00:00:00  38.5 Complete     Good    <NA> 
#>  9 b0713e87-cab… 2024-05-20 2024-05-20 00:00:00  22.4 Complete     Good    <NA> 
#> 10 b0713e87-cab… 2024-05-28 2024-05-28 00:00:00  NA   Incomplete   Missing <NA> 
#> # ℹ 74 more rows
#> # ℹ 2 more variables: invalid <chr>, missing <chr>

Alternatively, we can supply the station GUID and some additional parameters to retrieve the timeseries data:

ts <- ea_timeseries_values(
  station_guid = guid, observed_property = "waterFlow",
  value_type = "mean", period = 86400, min_date = min_date
)
ts
#> # A tibble: 84 × 9
#>    measure       date       dateTime            value completeness quality valid
#>    <chr>         <date>     <dttm>              <dbl> <chr>        <chr>   <chr>
#>  1 b0713e87-cab… 2024-04-18 2024-04-18 00:00:00  45.8 Complete     Good    <NA> 
#>  2 b0713e87-cab… 2024-04-22 2024-04-22 00:00:00  39.0 Complete     Good    <NA> 
#>  3 b0713e87-cab… 2024-04-25 2024-04-25 00:00:00  36.1 Complete     Good    <NA> 
#>  4 b0713e87-cab… 2024-04-27 2024-04-27 00:00:00  35.4 Complete     Good    <NA> 
#>  5 b0713e87-cab… 2024-04-30 2024-04-30 00:00:00  57.8 Complete     Good    <NA> 
#>  6 b0713e87-cab… 2024-04-28 2024-04-28 00:00:00  53.1 Complete     Good    <NA> 
#>  7 b0713e87-cab… 2024-04-29 2024-04-29 00:00:00  64.8 Complete     Good    <NA> 
#>  8 b0713e87-cab… 2024-05-26 2024-05-26 00:00:00  38.5 Complete     Good    <NA> 
#>  9 b0713e87-cab… 2024-05-20 2024-05-20 00:00:00  22.4 Complete     Good    <NA> 
#> 10 b0713e87-cab… 2024-05-28 2024-05-28 00:00:00  NA   Incomplete   Missing <NA> 
#> # ℹ 74 more rows
#> # ℹ 2 more variables: invalid <chr>, missing <chr>
…
